
[
  {
    "_class": "com.mjg.demo.model.DemoCharacter",
    "firstName": "Simpson",
    "lastName": "Homer",
    "age": 42
  },
  {
    "_class": "com.mjg.demo.model.DemoCharacter",
    "firstName": "Abraham",
    "lastName": "Simpson",
    "age": 78
  },
  {
    "_class": "com.mjg.demo.model.DemoCharacter",
    "firstName": "Ned",
    "lastName": "Flanders",
    "age": 46
  },
  {
    "_class": "com.mjg.demo.model.DemoCharacter",
    "firstName": "Barney",
    "lastName": "Gumble",
    "age": 39
  },
  {
    "_class": "com.mjg.demo.model.DemoCharacter",
    "firstName": "Cartman",
    "lastName": "Eric",
    "age": 13
  }
]